[
    "aikido",
    "athletics",
    "basketball",
    "capoeira",
    "climbing",
    "cricket",
    "cycling",
    "FMA",
    "football (soccer)",
    "gymnastics",
    "handball",
    "hapkido",
    "hiking",
    "hwa rang do",
    "judo",
    "jujitsu",
    "karate",
    "kendo",
    "kick boxing",
    "krav maga",
    "kung fu",
    "muay thai",
    "pilates",
    "rubgy",
    "running",
    "swimming",
    "taekwondo",
    "tai-chi",
    "tennis",
    "volleyball",
    "walking",
    "water polo",
    "wingtjun",
    "yoseikan",
    "zumba"
]